Tutorial
…
Arusha: April - 2019

This data table shows the number of records recorded for each activity carried out in the month of April - 2019

Detailed data table of the records

## # A tibble: 27 x 19
##    Location Accession Date  Activity Mother Father `Total Seeds`
##    <chr>    <chr>     <chr> <chr>    <chr>  <chr>  <lgl>        
##  1 Sendusu  ITC1355   2019~ Floweri~ <NA>   <NA>   NA           
##  2 Sendusu  IITA-Nak~ 2019~ Floweri~ <NA>   <NA>   NA           
##  3 Sendusu  IITA-Nak~ 2019~ Floweri~ <NA>   <NA>   NA           
##  4 Sendusu  Entukura  2019~ Floweri~ <NA>   <NA>   NA           
##  5 Sendusu  ITC1355   2019~ Floweri~ <NA>   <NA>   NA           
##  6 Sendusu  Nfuuka    2019~ Floweri~ <NA>   <NA>   NA           
##  7 Sendusu  Entukura  2019~ Floweri~ <NA>   <NA>   NA           
##  8 Sendusu  Nakasabi~ 2019~ Floweri~ <NA>   <NA>   NA           
##  9 Sendusu  Entukura  2019~ Floweri~ <NA>   <NA>   NA           
## 10 Sendusu  ITC1354   2019~ Floweri~ <NA>   <NA>   NA           
## # ... with 17 more rows, and 12 more variables: `Number Sent for Embryo
## #   Rescue` <lgl>, `Early Germination Seeds` <lgl>, `Good Seeds` <lgl>,
## #   `Number of Embryo Rescued` <lgl>, `Number of Embryo
## #   Germinating` <lgl>, Copies <lgl>, `Number Rooting` <lgl>, `Number Sent
## #   Out` <lgl>, `Number in Weaning2` <lgl>, `Number in Screenhouse` <lgl>,
## #   `Number Hardening` <lgl>, `Number in Openfield` <lgl>
## 
## # A tibble: 33 x 19
##    Location Accession Date  Activity Mother Father `Total Seeds`
##    <chr>    <chr>     <chr> <chr>    <chr>  <chr>  <lgl>        
##  1 Sendusu  SE201904~ 2019~ First p~ 29364~ 8075-7 NA           
##  2 Sendusu  SE201904~ 2019~ First p~ 29364~ 7197-2 NA           
##  3 Sendusu  SE201904~ 2019~ First p~ 25974~ 10969~ NA           
##  4 Sendusu  SE201904~ 2019~ First p~ 29275~ 10969~ NA           
##  5 Sendusu  SE201904~ 2019~ First p~ 29364~ 7197-2 NA           
##  6 Sendusu  SE201904~ 2019~ First p~ 29275~ 7197-2 NA           
##  7 Sendusu  SE201904~ 2019~ First p~ 29364~ 10969~ NA           
##  8 Sendusu  SE201904~ 2019~ First p~ Tereza 7197-2 NA           
##  9 Sendusu  SE201904~ 2019~ First p~ ITC13~ SH3217 NA           
## 10 Sendusu  SE201904~ 2019~ First p~ IITA-~ 9128-3 NA           
## # ... with 23 more rows, and 12 more variables: `Number Sent for Embryo
## #   Rescue` <lgl>, `Early Germination Seeds` <lgl>, `Good Seeds` <lgl>,
## #   `Number of Embryo Rescued` <lgl>, `Number of Embryo
## #   Germinating` <lgl>, Copies <lgl>, `Number Rooting` <lgl>, `Number Sent
## #   Out` <lgl>, `Number in Weaning2` <lgl>, `Number in Screenhouse` <lgl>,
## #   `Number Hardening` <lgl>, `Number in Openfield` <lgl>
## 
## # A tibble: 35 x 19
##    Location Accession Date  Activity Mother Father `Total Seeds`
##    <chr>    <chr>     <chr> <chr>    <chr>  <chr>  <lgl>        
##  1 Sendusu  SE201903~ 2019~ Repeat ~ Nakas~ 9128-3 NA           
##  2 Sendusu  SE201903~ 2019~ Repeat ~ Nakas~ 8075-7 NA           
##  3 Sendusu  SE201903~ 2019~ Repeat ~ ITC13~ TMB2X~ NA           
##  4 Sendusu  SE201903~ 2019~ Repeat ~ Kabuc~ 7197-2 NA           
##  5 Sendusu  SE201903~ 2019~ Repeat ~ Kabuc~ SH3362 NA           
##  6 Sendusu  SE201903~ 2019~ Repeat ~ ITC13~ SH3217 NA           
##  7 Sendusu  SE201903~ 2019~ Repeat ~ ITC13~ TMB2X~ NA           
##  8 Sendusu  SE201903~ 2019~ Repeat ~ ITC13~ 8075-7 NA           
##  9 Sendusu  SE201903~ 2019~ Repeat ~ Kabuc~ 8075-7 NA           
## 10 Sendusu  SE201904~ 2019~ Repeat ~ 29364~ 8075-7 NA           
## # ... with 25 more rows, and 12 more variables: `Number Sent for Embryo
## #   Rescue` <lgl>, `Early Germination Seeds` <lgl>, `Good Seeds` <lgl>,
## #   `Number of Embryo Rescued` <lgl>, `Number of Embryo
## #   Germinating` <lgl>, Copies <lgl>, `Number Rooting` <lgl>, `Number Sent
## #   Out` <lgl>, `Number in Weaning2` <lgl>, `Number in Screenhouse` <lgl>,
## #   `Number Hardening` <lgl>, `Number in Openfield` <lgl>
## 
…
